{
  "captureId": "test_2018-12-8_18-20-53",
  "worldName": "stratis",
  "missionName": "Test",
  "author": "Bob",
  "captureDelay": 1,
  "frameCount": 2,
  "entities": [
    [
      [
        0,
        1,
        0,
        "Qadeer Khusraw",
        "Alpha 1-1",
        "EAST",
        0
      ],
      [
        [
          [
            4277,
            2687
          ],
          154,
          1,
          0
        ],
        [
          [
            4277,
            2687
          ],
          154,
          1,
          0
        ]
      ],
      []
    ],
    [
      [
        0,
        1,
        1,
        "Bob",
        "Alpha 1-1",
        "WEST",
        1
      ],
      [
        [
          [
            4383,
            2598
          ],
          225,
          1,
          0
        ],
        [
          [
            4383,
            2598
          ],
          225,
          1,
          0
        ]
      ],
      []
    ]
  ],
  "events": []
}